%YAML 1.1
%TAG !u! tag:unity3d.com,2011:
--- !u!162 &1
EditorUserSettings:
  m_ObjectHideFlags: 0
  serializedVersion: 4
  m_ConfigSettings:
    RecentlyUsedSceneGuid-0:
      value: 5b520d0503545b0d0c0c0a2715770748154f4d2c7d7d7e627a7d4a35b4e1646a
      flags: 0
    RecentlyUsedSceneGuid-1:
      value: 0502055f51575e0d5d085d2012700744424e407b7f7970677d2d1930e1b7606e
      flags: 0
    RecentlyUsedSceneGuid-2:
      value: 545406035256085d0b570e7247720e44444e4b297d792567297b4d32e4e53139
      flags: 0
    RecentlyUsedSceneGuid-3:
      value: 5b5305005305505a0e0f0927437b094447164a7b7c7d74312f2b4c60bab6666e
      flags: 0
    RecentlyUsedSceneGuid-4:
      value: 0703035301035d5e095c097a40730e4417164c7b792e74667e281e31bab9326e
      flags: 0
    RecentlyUsedSceneGuid-5:
      value: 5555055156540c0d5e0a5971407a0d44464e4a73747977367c284c6be3b9326b
      flags: 0
    RecentlyUsedSceneGuid-6:
      value: 5b0657025204510b595a5c2140720d4441164e7c797a20347f281e63b0b96369
      flags: 0
    RecentlyUsedSceneGuid-7:
      value: 060905035c500b025c0f5f7745730844124e4f7b7a2a24692b2f4e6bb1b06069
      flags: 0
    RecentlyUsedSceneGuid-8:
      value: 5001075552025c5855595a261372074412154b7c787c74662f714966bab73039
      flags: 0
    vcSharedLogLevel:
      value: 0d5e400f0650
      flags: 0
  m_VCAutomaticAdd: 1
  m_VCDebugCom: 0
  m_VCDebugCmd: 0
  m_VCDebugOut: 0
  m_SemanticMergeMode: 2
  m_DesiredImportWorkerCount: 3
  m_StandbyImportWorkerCount: 2
  m_IdleImportWorkerShutdownDelay: 60000
  m_VCShowFailedCheckout: 1
  m_VCOverwriteFailedCheckoutAssets: 1
  m_VCProjectOverlayIcons: 1
  m_VCHierarchyOverlayIcons: 1
  m_VCOtherOverlayIcons: 1
  m_VCAllowAsyncUpdate: 1
  m_ArtifactGarbageCollection: 1
